<?xml version="1.0" encoding="UTF-8"?>
<testng-results ignored="0" total="25" passed="23" failed="2" skipped="0">
  <reporter-output>
  </reporter-output>
  <suite started-at="2021-07-30T22:15:03 EEST" name="Surefire suite" finished-at="2021-07-30T22:20:53 EEST" duration-ms="350176">
    <groups>
    </groups>
    <test started-at="2021-07-30T22:15:03 EEST" name="Surefire test" finished-at="2021-07-30T22:20:53 EEST" duration-ms="350176">
      <class name="testCases._07_ConnectionFunctionality">
        <test-method signature="TC07_001_connectWithUser()" started-at="2021-07-30T22:19:28 EEST" name="TC07_001_connectWithUser" finished-at="2021-07-30T22:19:50 EEST" duration-ms="21447" status="PASS">
          <reporter-output>
          </reporter-output>
        </test-method> <!-- TC07_001_connectWithUser -->
      </class> <!-- testCases._07_ConnectionFunctionality -->
      <class name="testCases._03_LoginFunctionality">
        <test-method signature="TC03_010_logoutUser()" started-at="2021-07-30T22:15:57 EEST" name="TC03_010_logoutUser" finished-at="2021-07-30T22:16:16 EEST" duration-ms="18915" status="PASS">
          <reporter-output>
          </reporter-output>
        </test-method> <!-- TC03_010_logoutUser -->
        <test-method signature="TC03_002_loginUserWithoutAnyCredentials()" started-at="2021-07-30T22:15:57 EEST" name="TC03_002_loginUserWithoutAnyCredentials" finished-at="2021-07-30T22:16:11 EEST" duration-ms="13987" status="PASS">
          <reporter-output>
          </reporter-output>
        </test-method> <!-- TC03_002_loginUserWithoutAnyCredentials -->
        <test-method signature="TC03_001_loginUserWithValidCredentials()" started-at="2021-07-30T22:15:57 EEST" name="TC03_001_loginUserWithValidCredentials" finished-at="2021-07-30T22:16:08 EEST" duration-ms="10615" status="PASS">
          <reporter-output>
          </reporter-output>
        </test-method> <!-- TC03_001_loginUserWithValidCredentials -->
      </class> <!-- testCases._03_LoginFunctionality -->
      <class name="testCases._01_AnonymousUser">
        <test-method signature="TC01_001_searchByProfession()" started-at="2021-07-30T22:15:03 EEST" name="TC01_001_searchByProfession" finished-at="2021-07-30T22:15:20 EEST" duration-ms="17201" status="PASS">
          <reporter-output>
          </reporter-output>
        </test-method> <!-- TC01_001_searchByProfession -->
        <test-method signature="TC01_004_searchByProfessionAndNameOfRecommendedPublicProfile()" started-at="2021-07-30T22:15:03 EEST" name="TC01_004_searchByProfessionAndNameOfRecommendedPublicProfile" finished-at="2021-07-30T22:15:21 EEST" duration-ms="18030" status="FAIL">
          <exception class="org.openqa.selenium.NoSuchElementException">
            <message>
              <![CDATA[Unable to locate element: //a[contains(.,"See Profile")]
For documentation on this error, please visit: http://seleniumhq.org/exceptions/no_such_element.html
Build info: version: '3.14.0', revision: 'aacccce0', time: '2018-08-02T20:19:58.91Z'
System info: host: 'LAPTOP-JIQ45AJA', ip: '192.168.100.21', os.name: 'Windows 10', os.arch: 'amd64', os.version: '10.0', java.version: '16.0.2'
Driver info: org.openqa.selenium.firefox.FirefoxDriver
Capabilities {acceptInsecureCerts: true, browserName: firefox, browserVersion: 90.0.2, javascriptEnabled: true, moz:accessibilityChecks: false, moz:buildID: 20210721174149, moz:geckodriverVersion: 0.29.0, moz:headless: false, moz:processID: 15684, moz:profile: C:\Users\nadez\AppData\Loca..., moz:shutdownTimeout: 60000, moz:useNonSpecCompliantPointerOrigin: false, moz:webdriverClick: true, pageLoadStrategy: normal, platform: WINDOWS, platformName: WINDOWS, platformVersion: 10.0, proxy: Proxy(), setWindowRect: true, strictFileInteractability: false, timeouts: {implicit: 0, pageLoad: 300000, script: 30000}, unhandledPromptBehavior: dismiss and notify}
Session ID: 4dee0385-d3b5-437d-933a-6acbe6d708fa
*** Element info: {Using=xpath, value=//a[contains(.,"See Profile")]}]]>
            </message>
            <full-stacktrace>
              <![CDATA[org.openqa.selenium.NoSuchElementException: Unable to locate element: //a[contains(.,"See Profile")]
For documentation on this error, please visit: http://seleniumhq.org/exceptions/no_such_element.html
Build info: version: '3.14.0', revision: 'aacccce0', time: '2018-08-02T20:19:58.91Z'
System info: host: 'LAPTOP-JIQ45AJA', ip: '192.168.100.21', os.name: 'Windows 10', os.arch: 'amd64', os.version: '10.0', java.version: '16.0.2'
Driver info: org.openqa.selenium.firefox.FirefoxDriver
Capabilities {acceptInsecureCerts: true, browserName: firefox, browserVersion: 90.0.2, javascriptEnabled: true, moz:accessibilityChecks: false, moz:buildID: 20210721174149, moz:geckodriverVersion: 0.29.0, moz:headless: false, moz:processID: 15684, moz:profile: C:\Users\nadez\AppData\Loca..., moz:shutdownTimeout: 60000, moz:useNonSpecCompliantPointerOrigin: false, moz:webdriverClick: true, pageLoadStrategy: normal, platform: WINDOWS, platformName: WINDOWS, platformVersion: 10.0, proxy: Proxy(), setWindowRect: true, strictFileInteractability: false, timeouts: {implicit: 0, pageLoad: 300000, script: 30000}, unhandledPromptBehavior: dismiss and notify}
Session ID: 4dee0385-d3b5-437d-933a-6acbe6d708fa
*** Element info: {Using=xpath, value=//a[contains(.,"See Profile")]}
at java.base/jdk.internal.reflect.NativeConstructorAccessorImpl.newInstance0(Native Method)
at java.base/jdk.internal.reflect.NativeConstructorAccessorImpl.newInstance(NativeConstructorAccessorImpl.java:78)
at java.base/jdk.internal.reflect.DelegatingConstructorAccessorImpl.newInstance(DelegatingConstructorAccessorImpl.java:45)
at java.base/java.lang.reflect.Constructor.newInstanceWithCaller(Constructor.java:499)
at java.base/java.lang.reflect.Constructor.newInstance(Constructor.java:480)
at org.openqa.selenium.remote.http.W3CHttpResponseCodec.createException(W3CHttpResponseCodec.java:187)
at org.openqa.selenium.remote.http.W3CHttpResponseCodec.decode(W3CHttpResponseCodec.java:122)
at org.openqa.selenium.remote.http.W3CHttpResponseCodec.decode(W3CHttpResponseCodec.java:49)
at org.openqa.selenium.remote.HttpCommandExecutor.execute(HttpCommandExecutor.java:158)
at org.openqa.selenium.remote.service.DriverCommandExecutor.execute(DriverCommandExecutor.java:83)
at org.openqa.selenium.remote.RemoteWebDriver.execute(RemoteWebDriver.java:548)
at org.openqa.selenium.remote.RemoteWebDriver.findElement(RemoteWebDriver.java:322)
at org.openqa.selenium.remote.RemoteWebDriver.findElementByXPath(RemoteWebDriver.java:424)
at org.openqa.selenium.By$ByXPath.findElement(By.java:353)
at org.openqa.selenium.remote.RemoteWebDriver.findElement(RemoteWebDriver.java:314)
at utils.UserActions.assertElementPresent(UserActions.java:195)
at pages.AnonymousUserPage.assertResultOfSearchByProfession(AnonymousUserPage.java:55)
at testCases._01_AnonymousUser.TC01_004_searchByProfessionAndNameOfRecommendedPublicProfile(_01_AnonymousUser.java:40)
at java.base/jdk.internal.reflect.NativeMethodAccessorImpl.invoke0(Native Method)
at java.base/jdk.internal.reflect.NativeMethodAccessorImpl.invoke(NativeMethodAccessorImpl.java:78)
at java.base/jdk.internal.reflect.DelegatingMethodAccessorImpl.invoke(DelegatingMethodAccessorImpl.java:43)
at java.base/java.lang.reflect.Method.invoke(Method.java:567)
at org.junit.runners.model.FrameworkMethod$1.runReflectiveCall(FrameworkMethod.java:50)
at org.junit.internal.runners.model.ReflectiveCallable.run(ReflectiveCallable.java:12)
at org.junit.runners.model.FrameworkMethod.invokeExplosively(FrameworkMethod.java:47)
at org.junit.internal.runners.statements.InvokeMethod.evaluate(InvokeMethod.java:17)
at org.junit.runners.ParentRunner.runLeaf(ParentRunner.java:325)
at org.junit.runners.BlockJUnit4ClassRunner.runChild(BlockJUnit4ClassRunner.java:78)
at org.junit.runners.BlockJUnit4ClassRunner.runChild(BlockJUnit4ClassRunner.java:57)
at org.junit.runners.ParentRunner$3.run(ParentRunner.java:290)
at org.junit.runners.ParentRunner$1.schedule(ParentRunner.java:71)
at org.junit.runners.ParentRunner.runChildren(ParentRunner.java:288)
at org.junit.runners.ParentRunner.access$000(ParentRunner.java:58)
at org.junit.runners.ParentRunner$2.evaluate(ParentRunner.java:268)
at org.junit.internal.runners.statements.RunBefores.evaluate(RunBefores.java:26)
at org.junit.internal.runners.statements.RunAfters.evaluate(RunAfters.java:27)
at org.junit.runners.ParentRunner.run(ParentRunner.java:363)
at org.junit.runner.JUnitCore.run(JUnitCore.java:137)
at org.junit.runner.JUnitCore.run(JUnitCore.java:115)
at org.testng.junit.JUnit4TestRunner.start(JUnit4TestRunner.java:74)
at org.testng.junit.JUnit4TestRunner.run(JUnit4TestRunner.java:65)
at org.testng.TestRunner$1.run(TestRunner.java:652)
at java.base/java.util.ArrayList.forEach(ArrayList.java:1511)
at org.testng.TestRunner.runJUnitWorkers(TestRunner.java:843)
at org.testng.TestRunner.privateRunJUnit(TestRunner.java:681)
at org.testng.TestRunner.run(TestRunner.java:585)
at org.testng.SuiteRunner.runTest(SuiteRunner.java:384)
at org.testng.SuiteRunner.runSequentially(SuiteRunner.java:378)
at org.testng.SuiteRunner.privateRun(SuiteRunner.java:337)
at org.testng.SuiteRunner.run(SuiteRunner.java:286)
at org.testng.SuiteRunnerWorker.runSuite(SuiteRunnerWorker.java:53)
at org.testng.SuiteRunnerWorker.run(SuiteRunnerWorker.java:96)
at org.testng.TestNG.runSuitesSequentially(TestNG.java:1187)
at org.testng.TestNG.runSuitesLocally(TestNG.java:1109)
at org.testng.TestNG.runSuites(TestNG.java:1039)
at org.testng.TestNG.run(TestNG.java:1007)
at org.apache.maven.surefire.testng.TestNGExecutor.run(TestNGExecutor.java:135)
at org.apache.maven.surefire.testng.TestNGDirectoryTestSuite.executeMulti(TestNGDirectoryTestSuite.java:198)
at org.apache.maven.surefire.testng.TestNGDirectoryTestSuite.execute(TestNGDirectoryTestSuite.java:94)
at org.apache.maven.surefire.testng.TestNGProvider.invoke(TestNGProvider.java:146)
at org.apache.maven.surefire.booter.ForkedBooter.invokeProviderInSameClassLoader(ForkedBooter.java:383)
at org.apache.maven.surefire.booter.ForkedBooter.runSuitesInProcess(ForkedBooter.java:344)
at org.apache.maven.surefire.booter.ForkedBooter.execute(ForkedBooter.java:125)
at org.apache.maven.surefire.booter.ForkedBooter.main(ForkedBooter.java:417)
]]>
            </full-stacktrace>
          </exception> <!-- org.openqa.selenium.NoSuchElementException -->
          <reporter-output>
          </reporter-output>
        </test-method> <!-- TC01_004_searchByProfessionAndNameOfRecommendedPublicProfile -->
        <test-method signature="TC01_002_searchByNoneProfessionAndName()" started-at="2021-07-30T22:15:03 EEST" name="TC01_002_searchByNoneProfessionAndName" finished-at="2021-07-30T22:15:20 EEST" duration-ms="17260" status="FAIL">
          <exception class="org.openqa.selenium.ElementClickInterceptedException">
            <message>
              <![CDATA[Element <button class="form-control btn btn-primary" type="submit"> is not clickable at point (1044,315) because another element <div id="ftco-loader" class="fullscreen"> obscures it
Build info: version: '3.14.0', revision: 'aacccce0', time: '2018-08-02T20:19:58.91Z'
System info: host: 'LAPTOP-JIQ45AJA', ip: '192.168.100.21', os.name: 'Windows 10', os.arch: 'amd64', os.version: '10.0', java.version: '16.0.2'
Driver info: org.openqa.selenium.firefox.FirefoxDriver
Capabilities {acceptInsecureCerts: true, browserName: firefox, browserVersion: 90.0.2, javascriptEnabled: true, moz:accessibilityChecks: false, moz:buildID: 20210721174149, moz:geckodriverVersion: 0.29.0, moz:headless: false, moz:processID: 15684, moz:profile: C:\Users\nadez\AppData\Loca..., moz:shutdownTimeout: 60000, moz:useNonSpecCompliantPointerOrigin: false, moz:webdriverClick: true, pageLoadStrategy: normal, platform: WINDOWS, platformName: WINDOWS, platformVersion: 10.0, proxy: Proxy(), setWindowRect: true, strictFileInteractability: false, timeouts: {implicit: 0, pageLoad: 300000, script: 30000}, unhandledPromptBehavior: dismiss and notify}
Session ID: 4dee0385-d3b5-437d-933a-6acbe6d708fa]]>
            </message>
            <full-stacktrace>
              <![CDATA[org.openqa.selenium.ElementClickInterceptedException: Element <button class="form-control btn btn-primary" type="submit"> is not clickable at point (1044,315) because another element <div id="ftco-loader" class="fullscreen"> obscures it
Build info: version: '3.14.0', revision: 'aacccce0', time: '2018-08-02T20:19:58.91Z'
System info: host: 'LAPTOP-JIQ45AJA', ip: '192.168.100.21', os.name: 'Windows 10', os.arch: 'amd64', os.version: '10.0', java.version: '16.0.2'
Driver info: org.openqa.selenium.firefox.FirefoxDriver
Capabilities {acceptInsecureCerts: true, browserName: firefox, browserVersion: 90.0.2, javascriptEnabled: true, moz:accessibilityChecks: false, moz:buildID: 20210721174149, moz:geckodriverVersion: 0.29.0, moz:headless: false, moz:processID: 15684, moz:profile: C:\Users\nadez\AppData\Loca..., moz:shutdownTimeout: 60000, moz:useNonSpecCompliantPointerOrigin: false, moz:webdriverClick: true, pageLoadStrategy: normal, platform: WINDOWS, platformName: WINDOWS, platformVersion: 10.0, proxy: Proxy(), setWindowRect: true, strictFileInteractability: false, timeouts: {implicit: 0, pageLoad: 300000, script: 30000}, unhandledPromptBehavior: dismiss and notify}
Session ID: 4dee0385-d3b5-437d-933a-6acbe6d708fa
at java.base/jdk.internal.reflect.NativeConstructorAccessorImpl.newInstance0(Native Method)
at java.base/jdk.internal.reflect.NativeConstructorAccessorImpl.newInstance(NativeConstructorAccessorImpl.java:78)
at java.base/jdk.internal.reflect.DelegatingConstructorAccessorImpl.newInstance(DelegatingConstructorAccessorImpl.java:45)
at java.base/java.lang.reflect.Constructor.newInstanceWithCaller(Constructor.java:499)
at java.base/java.lang.reflect.Constructor.newInstance(Constructor.java:480)
at org.openqa.selenium.remote.http.W3CHttpResponseCodec.createException(W3CHttpResponseCodec.java:187)
at org.openqa.selenium.remote.http.W3CHttpResponseCodec.decode(W3CHttpResponseCodec.java:122)
at org.openqa.selenium.remote.http.W3CHttpResponseCodec.decode(W3CHttpResponseCodec.java:49)
at org.openqa.selenium.remote.HttpCommandExecutor.execute(HttpCommandExecutor.java:158)
at org.openqa.selenium.remote.service.DriverCommandExecutor.execute(DriverCommandExecutor.java:83)
at org.openqa.selenium.remote.RemoteWebDriver.execute(RemoteWebDriver.java:548)
at org.openqa.selenium.remote.RemoteWebElement.execute(RemoteWebElement.java:276)
at org.openqa.selenium.remote.RemoteWebElement.click(RemoteWebElement.java:83)
at utils.UserActions.clickElement(UserActions.java:42)
at pages.AnonymousUserPage.searchAndSubmitByNoneFillInFields(AnonymousUserPage.java:38)
at testCases._01_AnonymousUser.TC01_002_searchByNoneProfessionAndName(_01_AnonymousUser.java:32)
at java.base/jdk.internal.reflect.NativeMethodAccessorImpl.invoke0(Native Method)
at java.base/jdk.internal.reflect.NativeMethodAccessorImpl.invoke(NativeMethodAccessorImpl.java:78)
at java.base/jdk.internal.reflect.DelegatingMethodAccessorImpl.invoke(DelegatingMethodAccessorImpl.java:43)
at java.base/java.lang.reflect.Method.invoke(Method.java:567)
at org.junit.runners.model.FrameworkMethod$1.runReflectiveCall(FrameworkMethod.java:50)
at org.junit.internal.runners.model.ReflectiveCallable.run(ReflectiveCallable.java:12)
at org.junit.runners.model.FrameworkMethod.invokeExplosively(FrameworkMethod.java:47)
at org.junit.internal.runners.statements.InvokeMethod.evaluate(InvokeMethod.java:17)
at org.junit.runners.ParentRunner.runLeaf(ParentRunner.java:325)
at org.junit.runners.BlockJUnit4ClassRunner.runChild(BlockJUnit4ClassRunner.java:78)
at org.junit.runners.BlockJUnit4ClassRunner.runChild(BlockJUnit4ClassRunner.java:57)
at org.junit.runners.ParentRunner$3.run(ParentRunner.java:290)
at org.junit.runners.ParentRunner$1.schedule(ParentRunner.java:71)
at org.junit.runners.ParentRunner.runChildren(ParentRunner.java:288)
at org.junit.runners.ParentRunner.access$000(ParentRunner.java:58)
at org.junit.runners.ParentRunner$2.evaluate(ParentRunner.java:268)
at org.junit.internal.runners.statements.RunBefores.evaluate(RunBefores.java:26)
at org.junit.internal.runners.statements.RunAfters.evaluate(RunAfters.java:27)
at org.junit.runners.ParentRunner.run(ParentRunner.java:363)
at org.junit.runner.JUnitCore.run(JUnitCore.java:137)
at org.junit.runner.JUnitCore.run(JUnitCore.java:115)
at org.testng.junit.JUnit4TestRunner.start(JUnit4TestRunner.java:74)
at org.testng.junit.JUnit4TestRunner.run(JUnit4TestRunner.java:65)
at org.testng.TestRunner$1.run(TestRunner.java:652)
at java.base/java.util.ArrayList.forEach(ArrayList.java:1511)
at org.testng.TestRunner.runJUnitWorkers(TestRunner.java:843)
at org.testng.TestRunner.privateRunJUnit(TestRunner.java:681)
at org.testng.TestRunner.run(TestRunner.java:585)
at org.testng.SuiteRunner.runTest(SuiteRunner.java:384)
at org.testng.SuiteRunner.runSequentially(SuiteRunner.java:378)
at org.testng.SuiteRunner.privateRun(SuiteRunner.java:337)
at org.testng.SuiteRunner.run(SuiteRunner.java:286)
at org.testng.SuiteRunnerWorker.runSuite(SuiteRunnerWorker.java:53)
at org.testng.SuiteRunnerWorker.run(SuiteRunnerWorker.java:96)
at org.testng.TestNG.runSuitesSequentially(TestNG.java:1187)
at org.testng.TestNG.runSuitesLocally(TestNG.java:1109)
at org.testng.TestNG.runSuites(TestNG.java:1039)
at org.testng.TestNG.run(TestNG.java:1007)
at org.apache.maven.surefire.testng.TestNGExecutor.run(TestNGExecutor.java:135)
at org.apache.maven.surefire.testng.TestNGDirectoryTestSuite.executeMulti(TestNGDirectoryTestSuite.java:198)
at org.apache.maven.surefire.testng.TestNGDirectoryTestSuite.execute(TestNGDirectoryTestSuite.java:94)
at org.apache.maven.surefire.testng.TestNGProvider.invoke(TestNGProvider.java:146)
at org.apache.maven.surefire.booter.ForkedBooter.invokeProviderInSameClassLoader(ForkedBooter.java:383)
at org.apache.maven.surefire.booter.ForkedBooter.runSuitesInProcess(ForkedBooter.java:344)
at org.apache.maven.surefire.booter.ForkedBooter.execute(ForkedBooter.java:125)
at org.apache.maven.surefire.booter.ForkedBooter.main(ForkedBooter.java:417)
]]>
            </full-stacktrace>
          </exception> <!-- org.openqa.selenium.ElementClickInterceptedException -->
          <reporter-output>
          </reporter-output>
        </test-method> <!-- TC01_002_searchByNoneProfessionAndName -->
        <test-method signature="TC01_009_logInAsAnonymousUser()" started-at="2021-07-30T22:15:03 EEST" name="TC01_009_logInAsAnonymousUser" finished-at="2021-07-30T22:15:36 EEST" duration-ms="32685" status="PASS">
          <reporter-output>
          </reporter-output>
        </test-method> <!-- TC01_009_logInAsAnonymousUser -->
        <test-method signature="TC01_008_navigateToAboutUsPage()" started-at="2021-07-30T22:15:03 EEST" name="TC01_008_navigateToAboutUsPage" finished-at="2021-07-30T22:15:28 EEST" duration-ms="24866" status="PASS">
          <reporter-output>
          </reporter-output>
        </test-method> <!-- TC01_008_navigateToAboutUsPage -->
      </class> <!-- testCases._01_AnonymousUser -->
      <class name="testCases._04_UpdateUserProfile">
        <test-method signature="TC02_010_updateUserProvidedServicesAndAvailability()" started-at="2021-07-30T22:16:17 EEST" name="TC02_010_updateUserProvidedServicesAndAvailability" finished-at="2021-07-30T22:16:44 EEST" duration-ms="27435" status="PASS">
          <reporter-output>
          </reporter-output>
        </test-method> <!-- TC02_010_updateUserProvidedServicesAndAvailability -->
        <test-method signature="TC04_001_updatePersonalProfile()" started-at="2021-07-30T22:16:17 EEST" name="TC04_001_updatePersonalProfile" finished-at="2021-07-30T22:16:32 EEST" duration-ms="15103" status="PASS">
          <reporter-output>
          </reporter-output>
        </test-method> <!-- TC04_001_updatePersonalProfile -->
        <test-method signature="TC02_009_updateUserProfession()" started-at="2021-07-30T22:16:17 EEST" name="TC02_009_updateUserProfession" finished-at="2021-07-30T22:16:38 EEST" duration-ms="21350" status="PASS">
          <reporter-output>
          </reporter-output>
        </test-method> <!-- TC02_009_updateUserProfession -->
      </class> <!-- testCases._04_UpdateUserProfile -->
      <class name="testCases._08_AdminFunctionality">
        <test-method signature="TC08_028_enableUserProfile()" started-at="2021-07-30T22:19:50 EEST" name="TC08_028_enableUserProfile" finished-at="2021-07-30T22:20:52 EEST" duration-ms="61435" status="PASS">
          <reporter-output>
          </reporter-output>
        </test-method> <!-- TC08_028_enableUserProfile -->
        <test-method signature="TC08_027_disableUserProfile()" started-at="2021-07-30T22:19:50 EEST" name="TC08_027_disableUserProfile" finished-at="2021-07-30T22:20:24 EEST" duration-ms="33955" status="PASS">
          <reporter-output>
          </reporter-output>
        </test-method> <!-- TC08_027_disableUserProfile -->
      </class> <!-- testCases._08_AdminFunctionality -->
      <class name="testCases._06_CommentFunctionality">
        <test-method signature="TC06_007_deleteComment()" started-at="2021-07-30T22:17:51 EEST" name="TC06_007_deleteComment" finished-at="2021-07-30T22:19:27 EEST" duration-ms="96485" status="PASS">
          <reporter-output>
          </reporter-output>
        </test-method> <!-- TC06_007_deleteComment -->
        <test-method signature="TC06_001_createNewComment()" started-at="2021-07-30T22:17:51 EEST" name="TC06_001_createNewComment" finished-at="2021-07-30T22:18:21 EEST" duration-ms="30608" status="PASS">
          <reporter-output>
          </reporter-output>
        </test-method> <!-- TC06_001_createNewComment -->
        <test-method signature="TC06_005_likeComment()" started-at="2021-07-30T22:17:51 EEST" name="TC06_005_likeComment" finished-at="2021-07-30T22:18:53 EEST" duration-ms="61952" status="PASS">
          <reporter-output>
          </reporter-output>
        </test-method> <!-- TC06_005_likeComment -->
      </class> <!-- testCases._06_CommentFunctionality -->
      <class name="testCases._02_RegisterFunctionality">
        <test-method signature="TC02_001_registerNewUserWithValidCredentials()" started-at="2021-07-30T22:15:37 EEST" name="TC02_001_registerNewUserWithValidCredentials" finished-at="2021-07-30T22:15:46 EEST" duration-ms="9696" status="PASS">
          <reporter-output>
          </reporter-output>
        </test-method> <!-- TC02_001_registerNewUserWithValidCredentials -->
        <test-method signature="TC02_002_registerNewUserWithoutAnyCredentials()" started-at="2021-07-30T22:15:37 EEST" name="TC02_002_registerNewUserWithoutAnyCredentials" finished-at="2021-07-30T22:15:50 EEST" duration-ms="13893" status="PASS">
          <reporter-output>
          </reporter-output>
        </test-method> <!-- TC02_002_registerNewUserWithoutAnyCredentials -->
        <test-method signature="TC02_004_registerNewUserWithInvalidEmail()" started-at="2021-07-30T22:15:37 EEST" name="TC02_004_registerNewUserWithInvalidEmail" finished-at="2021-07-30T22:15:53 EEST" duration-ms="16918" status="PASS">
          <reporter-output>
          </reporter-output>
        </test-method> <!-- TC02_004_registerNewUserWithInvalidEmail -->
        <test-method signature="TC02_008_registerNewUserWithShortPassword()" started-at="2021-07-30T22:15:37 EEST" name="TC02_008_registerNewUserWithShortPassword" finished-at="2021-07-30T22:15:56 EEST" duration-ms="19498" status="PASS">
          <reporter-output>
          </reporter-output>
        </test-method> <!-- TC02_008_registerNewUserWithShortPassword -->
      </class> <!-- testCases._02_RegisterFunctionality -->
      <class name="testCases._05_PostFunctionality">
        <test-method signature="TC05_001_createNewPublicPostWithShortMessage()" started-at="2021-07-30T22:16:45 EEST" name="TC05_001_createNewPublicPostWithShortMessage" finished-at="2021-07-30T22:17:07 EEST" duration-ms="21360" status="PASS">
          <reporter-output>
          </reporter-output>
        </test-method> <!-- TC05_001_createNewPublicPostWithShortMessage -->
        <test-method signature="TC05_004_createNewPrivatePostWithLongMessage()" started-at="2021-07-30T22:16:45 EEST" name="TC05_004_createNewPrivatePostWithLongMessage" finished-at="2021-07-30T22:17:21 EEST" duration-ms="35967" status="PASS">
          <reporter-output>
          </reporter-output>
        </test-method> <!-- TC05_004_createNewPrivatePostWithLongMessage -->
        <test-method signature="TC05_012_deletePost()" started-at="2021-07-30T22:16:45 EEST" name="TC05_012_deletePost" finished-at="2021-07-30T22:17:50 EEST" duration-ms="64223" status="PASS">
          <reporter-output>
          </reporter-output>
        </test-method> <!-- TC05_012_deletePost -->
        <test-method signature="TC05_010_likePost()" started-at="2021-07-30T22:16:45 EEST" name="TC05_010_likePost" finished-at="2021-07-30T22:17:34 EEST" duration-ms="48187" status="PASS">
          <reporter-output>
          </reporter-output>
        </test-method> <!-- TC05_010_likePost -->
      </class> <!-- testCases._05_PostFunctionality -->
    </test> <!-- Surefire test -->
  </suite> <!-- Surefire suite -->
</testng-results>
